{
	"info": {
		"_postman_id": "b1ec198a-3ecf-4fbb-bfed-85e7ded436e2",
		"name": "RestAPI",
		"schema": "https://schema.getpostman.com/json/collection/v2.1.0/collection.json",
		"_exporter_id": "33181120"
	},
	"item": [
		{
			"name": "postAPI",
			"item": [
				{
					"name": "post_api",
					"event": [
						{
							"listen": "test",
							"script": {
								"exec": [
									"//step2.1 : fetch the response body\r",
									"var responseBody= pm.response.json();\r",
									"console.log(responseBody);\r",
									"var res_name=responseBody.name;\r",
									"var res_job=responseBody.job;\r",
									"var res_id=responseBody.id;\r",
									"var res_date=responseBody.createdAt;\r",
									"//step2.2: fetch ecpected result\r",
									"var requestBody=pm.request.body.raw;\r",
									"requestBody=JSON.parse(requestBody);\r",
									"var req_name=requestBody.name;\r",
									"var req_job=requestBody.job;\r",
									"var expectedDate=  new Date().toISOString().slice(0,13);\r",
									"//step2.3validate the extracted response paramaters\r",
									"pm.test(\"validate response body parameters:Name\", function (){\r",
									"    pm.expect(res_name).to.eqls(req_name);\r",
									"})\r",
									"pm.test(\"validate response body parameters:Job\", function (){\r",
									"    pm.expect(res_job).to.eqls(req_job);\r",
									"})\r",
									"pm.test(\"validation response body parameters:Id\",function (){\r",
									"    pm.expect(res_id).to.not.null;\r",
									"    pm.expect(res_id).to.have.length(3);\r",
									"})\r",
									"pm.test(\"validation response body parameters: CreatedAt\", function(){\r",
									"    pm.expect(res_date.slice(0,13)).to.eql(expectedDate)\r",
									"})\r",
									""
								],
								"type": "text/javascript",
								"packages": {}
							}
						}
					],
					"request": {
						"method": "POST",
						"header": [],
						"body": {
							"mode": "raw",
							"raw": "\r\n\r\n{\r\n    \"name\": \"morpheus\",\r\n    \"job\": \"leader\"\r\n}",
							"options": {
								"raw": {
									"language": "json"
								}
							}
						},
						"url": {
							"raw": "https://reqres.in/api/users",
							"protocol": "https",
							"host": [
								"reqres",
								"in"
							],
							"path": [
								"api",
								"users"
							]
						}
					},
					"response": []
				},
				{
					"name": "json_data",
					"event": [
						{
							"listen": "test",
							"script": {
								"exec": [
									"//step  1: validation of status code\r",
									"pm.test(\"Status code is 201\", function () {\r",
									"    pm.response.to.have.status(201);\r",
									"});\r",
									"//step 2 : validate the response body \r",
									"//step2.1 : fetch the response body\r",
									"var responseBody= pm.response.json();\r",
									"console.log(responseBody);\r",
									"var res_name=responseBody.name;\r",
									"var res_job=responseBody.job;\r",
									"var res_id=responseBody.id;\r",
									"var res_date=responseBody.createdAt;\r",
									"//step2.2: fetch ecpected result\r",
									"var requestBody=pm.request.body.raw;\r",
									"requestBody=JSON.parse(requestBody);\r",
									"var req_name=requestBody.name;\r",
									"var req_job=requestBody.job;\r",
									"var expectedDate=  new Date().toISOString().slice(0,13);\r",
									"//step2.3validate the extracted response paramaters\r",
									"pm.test(\"validate response body parameters:Name\", function (){\r",
									"    pm.expect(res_name).to.eqls(req_name);\r",
									"})\r",
									"pm.test(\"validate response body parameters:Job\", function (){\r",
									"    pm.expect(res_job).to.eqls(req_job);\r",
									"})\r",
									"pm.test(\"validation response body parameters:Id\",function (){\r",
									"    pm.expect(res_id).to.not.null;\r",
									"    pm.expect(res_id).to.have.length(3);\r",
									"})\r",
									"pm.test(\"validation response body parameters: CreatedAt\", function(){\r",
									"    pm.expect(res_date.slice(0,13)).to.eql(expectedDate)\r",
									"})\r",
									""
								],
								"type": "text/javascript",
								"packages": {}
							}
						},
						{
							"listen": "prerequest",
							"script": {
								"exec": [
									""
								],
								"type": "text/javascript",
								"packages": {}
							}
						}
					],
					"request": {
						"auth": {
							"type": "oauth2",
							"oauth2": [
								{
									"key": "addTokenTo",
									"value": "header",
									"type": "string"
								}
							]
						},
						"method": "POST",
						"header": [],
						"body": {
							"mode": "raw",
							"raw": "[\r\n{\"Name\":\"{{Json_Name }}\",\r\n\"Job\":\"{{Json_Job}}\"},\r\n\r\n{\"Name\":\"{{Json_Name }}\",\r\n\"Job\":\"{{Json_Job}}\"}\r\n]",
							"options": {
								"raw": {
									"language": "json"
								}
							}
						},
						"url": {
							"raw": "https://reqres.in/api/users",
							"protocol": "https",
							"host": [
								"reqres",
								"in"
							],
							"path": [
								"api",
								"users"
							]
						}
					},
					"response": []
				},
				{
					"name": "excel_data1",
					"event": [
						{
							"listen": "test",
							"script": {
								"exec": [
									"//step  1: validation of status code\r",
									"pm.test(\"Status code is 201\", function () {\r",
									"    pm.response.to.have.status(201);\r",
									"});\r",
									"//step 2 : validate the response body \r",
									"//step2.1 : fetch the response body\r",
									"var responseBody= pm.response.json();\r",
									"console.log(responseBody);\r",
									"var res_name=responseBody.name;\r",
									"var res_job=responseBody.job;\r",
									"var res_id=responseBody.id;\r",
									"var res_date=responseBody.createdAt;\r",
									"//step2.2: fetch ecpected result\r",
									"var requestBody=pm.request.body.raw;\r",
									"requestBody=JSON.parse(requestBody);\r",
									"var req_name=requestBody.name;\r",
									"var req_job=requestBody.job;\r",
									"var expectedDate=  new Date().toISOString().slice(0,13);\r",
									"//step2.3validate the extracted response paramaters\r",
									"pm.test(\"validate response body parameters:Name\", function (){\r",
									"    pm.expect(res_name).to.eqls(req_name);\r",
									"})\r",
									"pm.test(\"validate response body parameters:Job\", function (){\r",
									"    pm.expect(res_job).to.eqls(req_job);\r",
									"})\r",
									"pm.test(\"validation response body parameters:Id\",function (){\r",
									"    pm.expect(res_id).to.not.null;\r",
									"    pm.expect(res_id).to.have.length(3);\r",
									"})\r",
									"pm.test(\"validation response body parameters: CreatedAt\", function(){\r",
									"    pm.expect(res_date.slice(0,13)).to.eql(expectedDate)\r",
									"})\r",
									""
								],
								"type": "text/javascript",
								"packages": {}
							}
						},
						{
							"listen": "prerequest",
							"script": {
								"exec": [
									""
								],
								"type": "text/javascript",
								"packages": {}
							}
						}
					],
					"request": {
						"auth": {
							"type": "oauth2",
							"oauth2": [
								{
									"key": "addTokenTo",
									"value": "header",
									"type": "string"
								}
							]
						},
						"method": "POST",
						"header": [],
						"body": {
							"mode": "raw",
							"raw": "[\r\n{\"Name\":\"{{Excel_name}}\",\r\n\"Job\":\"{{Excel_job}}\"},\r\n\r\n{\"Name\":\"{{Excel_name}}\",\r\n\"Job\":\"{{Excel_job}}\"}\r\n]",
							"options": {
								"raw": {
									"language": "json"
								}
							}
						},
						"url": {
							"raw": "https://reqres.in/api/users",
							"protocol": "https",
							"host": [
								"reqres",
								"in"
							],
							"path": [
								"api",
								"users"
							]
						}
					},
					"response": []
				},
				{
					"name": "random_data1",
					"event": [
						{
							"listen": "test",
							"script": {
								"exec": [
									"//step  1: validation of status code\r",
									"pm.test(\"Status code is 201\", function () {\r",
									"    pm.response.to.have.status(201);\r",
									"});\r",
									"//step 2 : validate the response body \r",
									"//step2.1 : fetch the response body\r",
									"var responseBody= pm.response.json();\r",
									"console.log(responseBody);\r",
									"var res_name=responseBody.name;\r",
									"var res_job=responseBody.job;\r",
									"var res_id=responseBody.id;\r",
									"var res_date=responseBody.createdAt;\r",
									"//step2.2: fetch ecpected result\r",
									"var requestBody=pm.request.body.raw;\r",
									"requestBody=JSON.parse(requestBody);\r",
									"var req_name=requestBody.name;\r",
									"var req_job=requestBody.job;\r",
									"var expectedDate=  new Date().toISOString().slice(0,13);\r",
									"//step2.3validate the extracted response paramaters\r",
									"pm.test(\"validate response body parameters:Name\", function (){\r",
									"    pm.expect(res_name).to.eqls(req_name);\r",
									"})\r",
									"pm.test(\"validate response body parameters:Job\", function (){\r",
									"    pm.expect(res_job).to.eqls(req_job);\r",
									"})\r",
									"pm.test(\"validation response body parameters:Id\",function (){\r",
									"    pm.expect(res_id).to.not.null;\r",
									"    pm.expect(res_id).to.have.length(3);\r",
									"})\r",
									"pm.test(\"validation response body parameters: CreatedAt\", function(){\r",
									"    pm.expect(res_date.slice(0,13)).to.eql(expectedDate)\r",
									"})\r",
									""
								],
								"type": "text/javascript",
								"packages": {}
							}
						},
						{
							"listen": "prerequest",
							"script": {
								"exec": [
									"var random_name=pm.variables.replaceIn('{{$randomFullName}}');\r",
									"pm.collectionVariables.set(\"Coll_Name\",random_name);\r",
									"\r",
									"var random_job=pm.variables.replaceIn('{{$randomJobType}}');\r",
									"pm.collectionVariables.set(\"Coll_Job\",random_job);\r",
									""
								],
								"type": "text/javascript",
								"packages": {}
							}
						}
					],
					"request": {
						"auth": {
							"type": "oauth2",
							"oauth2": [
								{
									"key": "addTokenTo",
									"value": "header",
									"type": "string"
								}
							]
						},
						"method": "POST",
						"header": [],
						"body": {
							"mode": "raw",
							"raw": "{\r\n    \"name\": \"{{Coll_Name}}\",\r\n    \"job\": \"{{Coll_Job}}\"\r\n}",
							"options": {
								"raw": {
									"language": "json"
								}
							}
						},
						"url": {
							"raw": "https://reqres.in/api/users",
							"protocol": "https",
							"host": [
								"reqres",
								"in"
							],
							"path": [
								"api",
								"users"
							]
						}
					},
					"response": []
				},
				{
					"name": "data_driven",
					"event": [
						{
							"listen": "test",
							"script": {
								"exec": [
									"var statuscode = pm.response.status;\r",
									"console.log(statuscode);\r",
									"var collstart = pm.collectionVariables.get(\"Start\");\r",
									"var collend = pm.collectionVariables.get(\"End\");\r",
									"\r",
									"if (statuscode == \"created\")\r",
									"{//step  1: validation of status code\r",
									"pm.test(\"Status code is 201\", function () {\r",
									"    pm.response.to.have.status(201);\r",
									"});\r",
									"//step 2 : validate the response body \r",
									"//step2.1 : fetch the response body\r",
									"var responseBody= pm.response.json();\r",
									"console.log(responseBody);\r",
									"var res_name=responseBody.name;\r",
									"var res_job=responseBody.job;\r",
									"var res_id=responseBody.id;\r",
									"var res_date=responseBody.createdAt;\r",
									"//step2.2: fetch ecpected result\r",
									"var requestBody=pm.request.body.raw;\r",
									"requestBody=JSON.parse(requestBody);\r",
									"var req_name=requestBody.name;\r",
									"var req_job=requestBody.job;\r",
									"var expectedDate=  new Date().toISOString().slice(0,13);\r",
									"//step2.3validate the extracted response paramaters\r",
									"pm.test(\"validate response body parameters:Name\", function (){\r",
									"    pm.expect(res_name).to.eqls(req_name);\r",
									"})\r",
									"pm.test(\"validate response body parameters:Job\", function (){\r",
									"    pm.expect(res_job).to.eqls(req_job);\r",
									"})\r",
									"pm.test(\"validation response body parameters:Id\",function (){\r",
									"    pm.expect(res_id).to.not.null;\r",
									"    pm.expect(res_id).to.have.length(3);\r",
									"})\r",
									"pm.test(\"validation response body parameters: CreatedAt\", function(){\r",
									"    pm.expect(res_date.slice(0,13)).to.eql(expectedDate)\r",
									"})\r",
									"}\r",
									"else{\r",
									"     if(collstart< eval(collend-1))\r",
									"{   \r",
									"    pm.collectionVariables.set(\"Start\",eval(collstart+1))\r",
									"    postman.setNextRequest(\"POST API Copy\");\r",
									"\r",
									"}\r",
									"else{\r",
									"    postman.setNextRequest(null);\r",
									"    pm.collectionVariables.set(\"Start\",0);\r",
									"    pm.test(\"Status code is 201\", function () {\r",
									"    pm.response.to.have.status(201);\r",
									"});\r",
									"\r",
									"}\r",
									"}\r",
									"\r",
									""
								],
								"type": "text/javascript",
								"packages": {}
							}
						},
						{
							"listen": "prerequest",
							"script": {
								"exec": [
									"var random_name=pm.variables.replaceIn('{{$randomFullName}}');\r",
									"pm.collectionVariables.set(\"Coll_Name\",random_name);\r",
									"\r",
									"var random_job=pm.variables.replaceIn('{{$randomJobType}}');\r",
									"pm.collectionVariables.set(\"Coll_Job\",random_job);\r",
									""
								],
								"type": "text/javascript",
								"packages": {}
							}
						}
					],
					"request": {
						"auth": {
							"type": "oauth2",
							"oauth2": [
								{
									"key": "addTokenTo",
									"value": "header",
									"type": "string"
								}
							]
						},
						"method": "POST",
						"header": [],
						"body": {
							"mode": "raw",
							"raw": "{\r\n    \"name\": \"morpheus\",\r\n    \"job\": \"leader\"\r\n}",
							"options": {
								"raw": {
									"language": "json"
								}
							}
						},
						"url": {
							"raw": "https://reqres.in/api/users",
							"protocol": "https",
							"host": [
								"reqres",
								"in"
							],
							"path": [
								"api",
								"users"
							]
						}
					},
					"response": []
				},
				{
					"name": "post_req_retry",
					"event": [
						{
							"listen": "test",
							"script": {
								"exec": [
									"var statuscode = pm.response.status;\r",
									"console.log(statuscode);\r",
									"var countstart = pm.collectionVariables.get(\"Start\");\r",
									"var countend = pm.collectionVariables.get(\"End\");\r",
									"\r",
									"if (statuscode == \"reated\")\r",
									"{//step  1: validation of status code\r",
									"pm.test(\"Status code is 201\", function () {\r",
									"    pm.response.to.have.status(201);\r",
									"});\r",
									"//step 2 : validate the response body \r",
									"//step2.1 : fetch the response body\r",
									"var responseBody= pm.response.json();\r",
									"console.log(responseBody);\r",
									"var res_name=responseBody.name;\r",
									"var res_job=responseBody.job;\r",
									"var res_id=responseBody.id;\r",
									"var res_date=responseBody.createdAt;\r",
									"//step2.2: fetch ecpected result\r",
									"var requestBody=pm.request.body.raw;\r",
									"requestBody=JSON.parse(requestBody);\r",
									"var req_name=requestBody.name;\r",
									"var req_job=requestBody.job;\r",
									"var expectedDate=  new Date().toISOString().slice(0,13);\r",
									"//step2.3validate the extracted response paramaters\r",
									"pm.test(\"validate response body parameters:Name\", function (){\r",
									"    pm.expect(res_name).to.eqls(req_name);\r",
									"})\r",
									"pm.test(\"validate response body parameters:Job\", function (){\r",
									"    pm.expect(res_job).to.eqls(req_job);\r",
									"})\r",
									"pm.test(\"validation response body parameters:Id\",function (){\r",
									"    pm.expect(res_id).to.not.null;\r",
									"    pm.expect(res_id).to.have.length(3);\r",
									"})\r",
									"pm.test(\"validation response body parameters: CreatedAt\", function(){\r",
									"    pm.expect(res_date.slice(0,13)).to.eql(expectedDate)\r",
									"})\r",
									"}\r",
									"else{\r",
									"     if(countstart<eval(countend-1))\r",
									"{   \r",
									"    pm.collectionVariables.set(\"Start\",eval(countstart+1))\r",
									"    postman.setNextRequest(\"POST API Copy\");\r",
									"\r",
									"}\r",
									"else{\r",
									"    postman.setNextRequest(null);\r",
									"    pm.collectionVariables.set(\"Start\",0);\r",
									"    pm.test(\"Status code is 201\", function () {\r",
									"    pm.response.to.have.status(201);\r",
									"});\r",
									"\r",
									"}\r",
									"}\r",
									"\r",
									""
								],
								"type": "text/javascript",
								"packages": {}
							}
						},
						{
							"listen": "prerequest",
							"script": {
								"exec": [
									"var random_name=pm.variables.replaceIn('{{$randomFullName}}');\r",
									"pm.collectionVariables.set(\"Coll_Name\",random_name);\r",
									"\r",
									"var random_job=pm.variables.replaceIn('{{$randomJobType}}');\r",
									"pm.collectionVariables.set(\"Coll_Job\",random_job);\r",
									""
								],
								"type": "text/javascript",
								"packages": {}
							}
						}
					],
					"request": {
						"auth": {
							"type": "oauth2",
							"oauth2": [
								{
									"key": "addTokenTo",
									"value": "header",
									"type": "string"
								}
							]
						},
						"method": "POST",
						"header": [],
						"body": {
							"mode": "raw",
							"raw": "{\r\n    \"name\": \"morpheus\",\r\n    \"job\": \"leader\"\r\n}",
							"options": {
								"raw": {
									"language": "json"
								}
							}
						},
						"url": {
							"raw": "https://reqres.in/api/users",
							"protocol": "https",
							"host": [
								"reqres",
								"in"
							],
							"path": [
								"api",
								"users"
							]
						}
					},
					"response": []
				}
			]
		},
		{
			"name": "putAPI",
			"item": [
				{
					"name": "https://reqres.in/api/users/2",
					"event": [
						{
							"listen": "test",
							"script": {
								"exec": [
									"//step1 : validation of status code",
									"pm.test(\"Status code is 200\", function () {",
									"    pm.response.to.have.status(200);",
									"});",
									"// step2 :validate response body",
									"//step 2.1: fetch response body",
									"var responseBody = pm.response.json();",
									"console.log(responseBody);",
									"var res_name = responseBody.name;",
									"var res_job = responseBody.job;",
									"",
									"var res_date = responseBody.updatedAt;",
									"//step2.2: fetch expected result",
									"var requestBody = pm.request.body.raw;",
									"requestBody = JSON.parse(requestBody);",
									"var req_name = requestBody.name;",
									"var req_job = requestBody.job;",
									"var expectedDate = new Date().toISOString().slice(0,13);",
									"",
									"//step 2.3 validate the extracted response parameters",
									"pm.test(\"validate the extracted response parameters:Name\", function(){",
									"    pm.expect(res_name).to.eqls(req_name);",
									"});",
									"pm.test(\"validate response body parameters:Job\",function(){",
									"    pm.expect(res_job).to.eqls(req_job)",
									"});",
									"pm.test(\"validate response body parameters:CreatedAt\", function(){",
									"    pm.expect(res_date.slice(0,13)).to.eqls(expectedDate) ",
									"})"
								],
								"type": "text/javascript",
								"packages": {}
							}
						}
					],
					"request": {
						"method": "PUT",
						"header": [],
						"body": {
							"mode": "raw",
							"raw": "{\r\n    \"name\": \"morpheus\",\r\n    \"job\": \"zion resident\",\r\n    \"updatedAt\": \"2024-03-08T15:31:28.243Z\"\r\n}",
							"options": {
								"raw": {
									"language": "html"
								}
							}
						},
						"url": {
							"raw": "https://reqres.in/api/users/2",
							"protocol": "https",
							"host": [
								"reqres",
								"in"
							],
							"path": [
								"api",
								"users",
								"2"
							]
						}
					},
					"response": []
				},
				{
					"name": "put_req_retry",
					"event": [
						{
							"listen": "test",
							"script": {
								"exec": [
									"var statuscode = pm.response.status;",
									"console.log(statuscode);",
									"var collstart=pm.collectionVariables.get(\"Start\");",
									"var collend=pm.collectionVariables.get(\"End\")",
									"",
									"if(statuscode==\"oK\")",
									"{//step1 : validation of status code",
									"pm.test(\"Status code is 200\", function () {",
									"    pm.response.to.have.status(200);",
									"});",
									"// step2 :validate response body",
									"//step 2.1: fetch response body",
									"var responseBody = pm.response.json();",
									"console.log(responseBody);",
									"var res_name = responseBody.name;",
									"var res_job = responseBody.job;",
									"",
									"var res_date = responseBody.updatedAt;",
									"//step2.2: fetch expected result",
									"var requestBody = pm.request.body.raw;",
									"requestBody = JSON.parse(requestBody);",
									"var req_name = requestBody.name;",
									"var req_job = requestBody.job;",
									"var expectedDate = new Date().toISOString().slice(0,13);",
									"",
									"//step 2.3 validate the extracted response parameters",
									"pm.test(\"validate the extracted response parameters:Name\", function(){",
									"    pm.expect(res_name).to.eqls(req_name);",
									"});",
									"pm.test(\"validate response body parameters:Job\",function(){",
									"    pm.expect(res_job).to.eqls(req_job)",
									"});",
									"pm.test(\"validate response body parameters:updatedAtAt\", function(){",
									"    pm.expect(res_date.slice(0,13)).to.eqls(expectedDate) ",
									"})}",
									"else{",
									"    if(collstart<eval(\"collend-1\"))",
									"    {   pm.collectionVariables.set(\"Start\",eval(collstart+1))",
									"         postman.setNextRequest(\"PutAPI_Retry\");",
									"}",
									"else{",
									"    postman.setNextRequest(null);",
									"    pm.collectionVariables.set(\"Start\",0);",
									"    pm.test(\"Status code is 200\", function () {",
									"    pm.response.to.have.status(200);",
									"});",
									"",
									"",
									"}",
									"}",
									"",
									"",
									"",
									"",
									"",
									""
								],
								"type": "text/javascript",
								"packages": {}
							}
						}
					],
					"request": {
						"method": "PUT",
						"header": [],
						"body": {
							"mode": "raw",
							"raw": "{\r\n    \"name\": \"morpheus\",\r\n    \"job\": \"zion resident\"\r\n}",
							"options": {
								"raw": {
									"language": "json"
								}
							}
						},
						"url": {
							"raw": "https://reqres.in/api/users/2",
							"protocol": "https",
							"host": [
								"reqres",
								"in"
							],
							"path": [
								"api",
								"users",
								"2"
							]
						}
					},
					"response": []
				},
				{
					"name": "New Request",
					"request": {
						"method": "GET",
						"header": []
					},
					"response": []
				}
			]
		},
		{
			"name": "getAPI",
			"item": [
				{
					"name": "https://reqres.in/api/users?page=2",
					"event": [
						{
							"listen": "test",
							"script": {
								"exec": [
									"//step1: validation of status code",
									"pm.test(\"Status code is 200\", function () {",
									"    pm.response.to.have.status(200);",
									"});",
									"//step 2:Declare the expected result ",
									"const id=[7,8,9,10,11,12];",
									"",
									"const first_name=[\"Michael\",\"Lindsay\",\"Tobias\",\"Byron\",\"George\",\"Rachel\"];",
									"const last_name=[\"Lawson\",\"Ferguson\",\"Funke\",\"Fields\",\"Edwards\",\"Howell\"];",
									"const email=[\"michael.lawson@reqres.in\",\"lindsay.ferguson@reqres.in\",\"tobias.funke@reqres.in\",\"byron.fields@reqres.in\",\"george.edwards@reqres.in\",\"rachel.howell@reqres.in\"];",
									"",
									"const avatar=[\"https://reqres.in/img/faces/7-image.jpg\",\"https://reqres.in/img/faces/8-image.jpg\",\"https://reqres.in/img/faces/9-image.jpg\",\"https://reqres.in/img/faces/10-image.jpg\",\"https://reqres.in/img/faces/11-image.jpg\",\"https://reqres.in/img/faces/12-image.jpg\"];",
									"//step3: validate response body",
									"//step3.1: fetch response body",
									"var responseBody = pm.response.json();",
									" //step 3.2: fetch response body data array length",
									" var dataArray= responseBody.data;",
									" var count = dataArray.length;",
									" //step3.4: fetch and validate response body params",
									" for(i=0 ; i<count ; i++)",
									" {",
									"    //step 3.4.1: Fetch expected results",
									"    var exp_id = id[i];",
									"    var exp_first_name=first_name[i];",
									"    var exp_last_name=last_name[i];",
									"    var exp_email=email[i];",
									"    var exp_avatar=avatar[i];",
									"    //step 3.4.2 : Fetch response body params",
									"     var res_id = responseBody.data[i].id;",
									"     var res_email= responseBody.data[i].email;",
									"     var res_first_name = responseBody.data[i].first_name;",
									"     var res_last_name = responseBody.data[i].last_name;",
									"     var res_avatar = responseBody.data[i].avatar;",
									"     //step 3.4.3: validate response body ",
									"     pm.test(\"validate id at Index\"+i, function(){",
									"        pm.expect(res_id).to.eql(exp_id);",
									"     });",
									"     pm.test(\"validate email at Index\"+i, function(){",
									"        pm.expect(res_email).to.eql(exp_email);",
									"     });",
									"     pm.test(\"validate first_name at Index\"+i, function(){",
									"        pm.expect(res_first_name).to.eql(exp_first_name);",
									"     });",
									"     pm.test(\"validate last_name in Index\"+i, function(){",
									"        pm.expect(res_last_name).to.eql(exp_last_name);",
									"     });",
									"     pm.test(\"validate avatar at Index\"+i, function(){",
									"        pm.expect(res_avatar).to.eql(exp_avatar);",
									"     });",
									" }"
								],
								"type": "text/javascript"
							}
						}
					],
					"protocolProfileBehavior": {
						"disableBodyPruning": true
					},
					"request": {
						"method": "GET",
						"header": [],
						"body": {
							"mode": "raw",
							"raw": "{\r\n    \"page\": 2,\r\n    \"per_page\": 6,\r\n    \"total\": 12,\r\n    \"total_pages\": 2,\r\n    \"data\": [\r\n        {\r\n            \"id\": 7,\r\n            \"email\": \"michael.lawson@reqres.in\",\r\n            \"first_name\": \"Michael\",\r\n            \"last_name\": \"Lawson\",\r\n            \"avatar\": \"https://reqres.in/img/faces/7-image.jpg\"\r\n        },\r\n        {\r\n            \"id\": 8,\r\n            \"email\": \"lindsay.ferguson@reqres.in\",\r\n            \"first_name\": \"Lindsay\",\r\n            \"last_name\": \"Ferguson\",\r\n            \"avatar\": \"https://reqres.in/img/faces/8-image.jpg\"\r\n        },\r\n        {\r\n            \"id\": 9,\r\n            \"email\": \"tobias.funke@reqres.in\",\r\n            \"first_name\": \"Tobias\",\r\n            \"last_name\": \"Funke\",\r\n            \"avatar\": \"https://reqres.in/img/faces/9-image.jpg\"\r\n        },\r\n        {\r\n            \"id\": 10,\r\n            \"email\": \"byron.fields@reqres.in\",\r\n            \"first_name\": \"Byron\",\r\n            \"last_name\": \"Fields\",\r\n            \"avatar\": \"https://reqres.in/img/faces/10-image.jpg\"\r\n        },\r\n        {\r\n            \"id\": 11,\r\n            \"email\": \"george.edwards@reqres.in\",\r\n            \"first_name\": \"George\",\r\n            \"last_name\": \"Edwards\",\r\n            \"avatar\": \"https://reqres.in/img/faces/11-image.jpg\"\r\n        },\r\n        {\r\n            \"id\": 12,\r\n            \"email\": \"rachel.howell@reqres.in\",\r\n            \"first_name\": \"Rachel\",\r\n            \"last_name\": \"Howell\",\r\n            \"avatar\": \"https://reqres.in/img/faces/12-image.jpg\"\r\n        }\r\n    ],\r\n    \"support\": {\r\n        \"url\": \"https://reqres.in/#support-heading\",\r\n        \"text\": \"To keep ReqRes free, contributions towards server costs are appreciated!\"\r\n    }\r\n}\r\n",
							"options": {
								"raw": {
									"language": "json"
								}
							}
						},
						"url": {
							"raw": "https://reqres.in/api/users?page=2",
							"protocol": "https",
							"host": [
								"reqres",
								"in"
							],
							"path": [
								"api",
								"users"
							],
							"query": [
								{
									"key": "page",
									"value": "2"
								}
							]
						}
					},
					"response": []
				},
				{
					"name": "get_req_retry",
					"event": [
						{
							"listen": "test",
							"script": {
								"exec": [
									"var statuscode=pm.response.status;",
									"console.log(statuscode);",
									"var collstart=pm.collectionVariables.get(\"Start\");",
									"var collend=pm.collectionVariables.get(\"End\");",
									"",
									"if(statuscode==\"oK\")",
									"{//step1: validation of status code",
									"pm.test(\"Status code is 200\", function () {",
									"    pm.response.to.have.status(200);",
									"});",
									"//step 2:Declare the expected result ",
									"const id=[7,8,9,10,11,12];",
									"",
									"const first_name=[\"Michael\",\"Lindsay\",\"Tobias\",\"Byron\",\"George\",\"Rachel\"];",
									"const last_name=[\"Lawson\",\"Ferguson\",\"Funke\",\"Fields\",\"Edwards\",\"Howell\"];",
									"const email=[\"michael.lawson@reqres.in\",\"lindsay.ferguson@reqres.in\",\"tobias.funke@reqres.in\",\"byron.fields@reqres.in\",\"george.edwards@reqres.in\",\"rachel.howell@reqres.in\"];",
									"",
									"const avatar=[\"https://reqres.in/img/faces/7-image.jpg\",\"https://reqres.in/img/faces/8-image.jpg\",\"https://reqres.in/img/faces/9-image.jpg\",\"https://reqres.in/img/faces/10-image.jpg\",\"https://reqres.in/img/faces/11-image.jpg\",\"https://reqres.in/img/faces/12-image.jpg\"];",
									"//step3: validate response body",
									"//step3.1: fetch response body",
									"var responseBody = pm.response.json();",
									" //step 3.2: fetch response body data array length",
									" var dataArray= responseBody.data;",
									" var count = dataArray.length;",
									" //step3.4: fetch and validate response body params",
									" for(i=0 ; i<count ; i++)",
									" {",
									"    //step 3.4.1: Fetch expected results",
									"    var exp_id = id[i];",
									"    var exp_first_name=first_name[i];",
									"    var exp_last_name=last_name[i];",
									"    var exp_email=email[i];",
									"    var exp_avatar=avatar[i];",
									"    //step 3.4.2 : Fetch response body params",
									"     var res_id = responseBody.data[i].id;",
									"     var res_email= responseBody.data[i].email;",
									"     var res_first_name = responseBody.data[i].first_name;",
									"     var res_last_name = responseBody.data[i].last_name;",
									"     var res_avatar = responseBody.data[i].avatar;",
									"     //step 3.4.3: validate response body ",
									"     pm.test(\"validate id at Index\"+i, function(){",
									"        pm.expect(res_id).to.eql(exp_id);",
									"     });",
									"     pm.test(\"validate email at Index\"+i, function(){",
									"        pm.expect(res_email).to.eql(exp_email);",
									"     });",
									"     pm.test(\"validate first_name at Index\"+i, function(){",
									"        pm.expect(res_first_name).to.eql(exp_first_name);",
									"     });",
									"     pm.test(\"validate last_name in Index\"+i, function(){",
									"        pm.expect(res_last_name).to.eql(exp_last_name);",
									"     });",
									"     pm.test(\"validate avatar at Index\"+i, function(){",
									"        pm.expect(res_avatar).to.eql(exp_avatar);",
									"     });",
									" }",
									"}",
									"else{",
									"    if(collstart <eval(collend-1)){   ",
									"        pm.collectionVariables.set(\"Start\",eval(collstart +1))",
									"         postman.setNextRequest(\"GETAPI_retry\")",
									"}",
									"else{",
									"    postman.setNextRequest(null);",
									"    pm.collectionVariables.set(\"Start\",0);",
									"    pm.test(\"Status code is 200\", function () {",
									"    pm.response.to.have.status(200);",
									"});",
									"",
									"}",
									"}",
									"",
									"",
									""
								],
								"type": "text/javascript",
								"packages": {}
							}
						}
					],
					"protocolProfileBehavior": {
						"disableBodyPruning": true
					},
					"request": {
						"method": "GET",
						"header": [],
						"body": {
							"mode": "raw",
							"raw": "{\r\n    \"page\": 2,\r\n    \"per_page\": 6,\r\n    \"total\": 12,\r\n    \"total_pages\": 2,\r\n    \"data\": [\r\n        {\r\n            \"id\": 7,\r\n            \"email\": \"michael.lawson@reqres.in\",\r\n            \"first_name\": \"Michael\",\r\n            \"last_name\": \"Lawson\",\r\n            \"avatar\": \"https://reqres.in/img/faces/7-image.jpg\"\r\n        },\r\n        {\r\n            \"id\": 8,\r\n            \"email\": \"lindsay.ferguson@reqres.in\",\r\n            \"first_name\": \"Lindsay\",\r\n            \"last_name\": \"Ferguson\",\r\n            \"avatar\": \"https://reqres.in/img/faces/8-image.jpg\"\r\n        },\r\n        {\r\n            \"id\": 9,\r\n            \"email\": \"tobias.funke@reqres.in\",\r\n            \"first_name\": \"Tobias\",\r\n            \"last_name\": \"Funke\",\r\n            \"avatar\": \"https://reqres.in/img/faces/9-image.jpg\"\r\n        },\r\n        {\r\n            \"id\": 10,\r\n            \"email\": \"byron.fields@reqres.in\",\r\n            \"first_name\": \"Byron\",\r\n            \"last_name\": \"Fields\",\r\n            \"avatar\": \"https://reqres.in/img/faces/10-image.jpg\"\r\n        },\r\n        {\r\n            \"id\": 11,\r\n            \"email\": \"george.edwards@reqres.in\",\r\n            \"first_name\": \"George\",\r\n            \"last_name\": \"Edwards\",\r\n            \"avatar\": \"https://reqres.in/img/faces/11-image.jpg\"\r\n        },\r\n        {\r\n            \"id\": 12,\r\n            \"email\": \"rachel.howell@reqres.in\",\r\n            \"first_name\": \"Rachel\",\r\n            \"last_name\": \"Howell\",\r\n            \"avatar\": \"https://reqres.in/img/faces/12-image.jpg\"\r\n        }\r\n    ],\r\n    \"support\": {\r\n        \"url\": \"https://reqres.in/#support-heading\",\r\n        \"text\": \"To keep ReqRes free, contributions towards server costs are appreciated!\"\r\n    }\r\n}\r\n",
							"options": {
								"raw": {
									"language": "json"
								}
							}
						},
						"url": {
							"raw": "https://reqres.in/api/users?page=2",
							"protocol": "https",
							"host": [
								"reqres",
								"in"
							],
							"path": [
								"api",
								"users"
							],
							"query": [
								{
									"key": "page",
									"value": "2"
								}
							]
						}
					},
					"response": []
				}
			]
		},
		{
			"name": "patchAPI",
			"item": [
				{
					"name": "https://reqres.in/api/users/2",
					"event": [
						{
							"listen": "test",
							"script": {
								"exec": [
									"//step1 : validation of status code\r",
									"pm.test(\"Status code is 200\", function () {\r",
									"    pm.response.to.have.status(200);\r",
									"});\r",
									"// step2 :validate response body\r",
									"//step 2.1: fetch response body\r",
									"var responseBody = pm.response.json();\r",
									"console.log(responseBody);\r",
									"var res_name = responseBody.name;\r",
									"var res_job = responseBody.job;\r",
									"\r",
									"var res_date = responseBody.updatedAt;\r",
									"//step2.2: fetch expected result\r",
									"var requestBody = pm.request.body.raw;\r",
									"requestBody = JSON.parse(requestBody);\r",
									"var req_name = requestBody.name;\r",
									"var req_job = requestBody.job;\r",
									"var expectedDate = new Date().toISOString().slice(0,13);\r",
									"\r",
									"//step 2.3 validate the extracted response parameters\r",
									"pm.test(\"validate the extracted response parameters:Name\", function(){\r",
									"    pm.expect(res_name).to.eqls(req_name);\r",
									"});\r",
									"pm.test(\"validate response body parameters:Job\",function(){\r",
									"    pm.expect(res_job).to.eqls(req_job)\r",
									"});\r",
									"pm.test(\"validate response body parameters:CreatedAt\", function(){\r",
									"    pm.expect(res_date.slice(0,13)).to.eqls(expectedDate) \r",
									"})\r",
									""
								],
								"type": "text/javascript",
								"packages": {}
							}
						}
					],
					"request": {
						"method": "PATCH",
						"header": [],
						"body": {
							"mode": "raw",
							"raw": "{\r\n    \"name\": \"morpheus\",\r\n    \"job\": \"zion resident\",\r\n    \"updatedAt\": \"2024-03-07T09:05:32.961Z\"\r\n}",
							"options": {
								"raw": {
									"language": "json"
								}
							}
						},
						"url": {
							"raw": "https://reqres.in/api/users/2",
							"protocol": "https",
							"host": [
								"reqres",
								"in"
							],
							"path": [
								"api",
								"users",
								"2"
							]
						}
					},
					"response": []
				},
				{
					"name": "patch_API_Retry",
					"event": [
						{
							"listen": "test",
							"script": {
								"exec": [
									"var statuscode = pm.response.status;\r",
									"console.log(statuscode);\r",
									"var collstart =pm.collectionVariables.get(\"Start\");\r",
									"var collend = pm.collectionVariables.get(\"End\");\r",
									"\r",
									"if(statuscode==\"oK\")\r",
									"{//step1 : validation of status code\r",
									"pm.test(\"Status code is 200\", function () {\r",
									"     pm.response.to.have.status(200);\r",
									"});\r",
									"// step2 :validate response body\r",
									"//step 2.1: fetch response body\r",
									"var responseBody = pm.response.json();\r",
									"console.log(responseBody);\r",
									"var res_name = responseBody.name;\r",
									"var res_job = responseBody.job;\r",
									"\r",
									"var res_date = responseBody.updatedAt;\r",
									"//step2.2: fetch expected result\r",
									"var requestBody = pm.request.body.raw;\r",
									"requestBody = JSON.parse(requestBody);\r",
									"var req_name = requestBody.name;\r",
									"var req_job = requestBody.job;\r",
									"var expectedDate = new Date().toISOString().slice(0,13);\r",
									"\r",
									"//step 2.3 validate the extracted response parameters\r",
									"pm.test(\"validate the extracted response parameters:Name\", function(){\r",
									"    pm.expect(res_name).to.eqls(req_name);\r",
									"});\r",
									"pm.test(\"validate response body parameters:Job\",function(){\r",
									"    pm.expect(res_job).to.eqls(req_job)\r",
									"});\r",
									"pm.test(\"validate response body parameters:CreatedAt\", function(){\r",
									"    pm.expect(res_date.slice(0,13)).to.eqls(expectedDate) \r",
									"})}\r",
									"else\r",
									" {\r",
									"    if(collstart < eval(collend-1)){    \r",
									"        pm.collectionVariables.set(\"Start\", eval(collstart+1))\r",
									"        postman.setNextRequest(\"patch API_Retry\");\r",
									"}\r",
									"else{\r",
									"    postman.setNextRequest(null);\r",
									"    pm.collectionVariables.set(\"Start\",0);\r",
									"    pm.test(\"Status code is 200\", function () {\r",
									"     pm.response.to.have.status(200);\r",
									"});\r",
									"\r",
									"}\r",
									"    \r",
									"\r",
									"}\r",
									"\r",
									"\r",
									"\r",
									"\r",
									""
								],
								"type": "text/javascript",
								"packages": {}
							}
						}
					],
					"request": {
						"method": "PATCH",
						"header": [],
						"body": {
							"mode": "raw",
							"raw": "{\r\n    \"name\": \"morpheus\",\r\n    \"job\": \"zion resident\",\r\n    \"updatedAt\": \"2024-03-07T09:05:32.961Z\"\r\n}",
							"options": {
								"raw": {
									"language": "json"
								}
							}
						},
						"url": {
							"raw": "https://reqres.in/api/users/2",
							"protocol": "https",
							"host": [
								"reqres",
								"in"
							],
							"path": [
								"api",
								"users",
								"2"
							]
						}
					},
					"response": []
				}
			]
		},
		{
			"name": "https://reqres.in/api/users/2",
			"event": [
				{
					"listen": "test",
					"script": {
						"exec": [
							"pm.test(\"Status code is 204\", function () {\r",
							"    pm.response.to.have.status(204);\r",
							"});"
						],
						"type": "text/javascript"
					}
				}
			],
			"request": {
				"method": "DELETE",
				"header": [],
				"body": {
					"mode": "raw",
					"raw": "",
					"options": {
						"raw": {
							"language": "json"
						}
					}
				},
				"url": {
					"raw": "https://reqres.in/api/users/2",
					"protocol": "https",
					"host": [
						"reqres",
						"in"
					],
					"path": [
						"api",
						"users",
						"2"
					]
				}
			},
			"response": []
		}
	],
	"event": [
		{
			"listen": "prerequest",
			"script": {
				"type": "text/javascript",
				"packages": {},
				"exec": [
					""
				]
			}
		},
		{
			"listen": "test",
			"script": {
				"type": "text/javascript",
				"packages": {},
				"exec": [
					""
				]
			}
		}
	],
	"variable": [
		{
			"key": "Start",
			"value": "",
			"type": "string"
		},
		{
			"key": "End",
			"value": "",
			"type": "string"
		},
		{
			"key": "Coll_Name",
			"value": ""
		},
		{
			"key": "Coll_Job",
			"value": ""
		},
		{
			"key": "Json_Name ",
			"value": "",
			"type": "string"
		},
		{
			"key": "Json_Job",
			"value": "",
			"type": "string"
		},
		{
			"key": "Excel_name",
			"value": "",
			"type": "string"
		},
		{
			"key": "Excel_job",
			"value": "",
			"type": "string"
		}
	]
}